{
  "title": "Theses.Active",
  "model": "Theses",
  "searchExpression": "(indexof(name, '${text}') ge 0 or indexof(instructor/familyName, '${text}') ge 0)",
  "columns": [
    {
      "name": "id",
      "virtual": true,
      "property" : "id",
      "formatter": "ButtonFormatter",
      "formatString": "#/theses/${id}",
      "className": "text-center",
      "formatOptions": {
        "buttonContent": "<i class=\"far fa-eye text-indigo\"></i>",
        "buttonClass": "btn btn-default"
      }
    },
    {
      "name": "id",
      "property": "id",
      "hidden": true
    },
    {
      "name": "instructor/id",
      "property": "instructorId",
      "hidden": true,
      "title": "Theses.InstructorId"
    },
    {
      "name": "name",
      "property": "title",
      "title": "Theses.ThesesName"
    },
    {
      "name": "type/name",
      "property": "thesisType",
      "title": "Theses.ThesesType"
    },
    {
      "name": "subject/name",
      "property": "thesisSubject",
      "title": "Theses.ThesisSubject"
    },
    {
      "name": "startYear/alternateName",
      "property": "startYear",
      "title": "Theses.StartYear"
    },
    {
      "name": "startPeriod/alternateName",
      "property": "startPeriod",
      "title": "Theses.StartPeriod",
      "formatter": "TranslationFormatter",
      "formatString": "Periods.${value}"
    },
    {
      "name": "instructor/familyName",
      "property": "instructorFamilyName",
      "hidden": true,
      "title": "Theses.InstructorFamilyName"
    },
    {
      "name": "instructor/givenName",
      "property": "instructorGivenName",
      "title": "Theses.InstructorFullName",
      "formatter": "TemplateFormatter",
      "formatString": "${instructorFamilyName} ${instructorGivenName}"
    },
    {
      "name": "status/alternateName",
      "property": "statusName",
      "title": "Theses.Status",
      "formatters": [
        {
          "formatter": "TranslationFormatter",
          "formatString": "ThesisStatuses.${value}"
        },
        {
          "formatter": "NgClassFormatter",
          "formatOptions": {
            "ngClass": {
              "text-danger": "'${statusName}'==='cancelled'",
              "text-theme": "'${statusName}'==='potential' || '${statusName}'==='paused' || '${statusName}'==='active'",
              "text-success": "'${statusName}'==='completed'"
            }
          }
        }
      ]
    },
    {
      "name": "dateModified",
      "property": "dateModified",
      "title": "Theses.DateModified",
      "formatter": "DateTimeFormatter",
      "formatString": "short"
    }
  ],
  "defaults":{
    "filter": "(students/student eq null and department eq ${currentDepartment})",
    "orderBy": "dateModified desc"
  },
  "criteria": [
    {
      "name": "thesisName",
      "filter": "(indexof(name, '${value}') ge 0)",
      "type": "text"
    },
    {
      "name": "startYearId",
      "filter": "(startYear/id eq '${value}')",
      "type": "text"
    },
    {
      "name": "startPeriod",
      "filter": "(startPeriod/alternateName eq '${value}')",
      "type": "text"
    },
    {
      "name": "statusId",
      "filter": "(status/alternateName eq '${value}') ",
      "type": "text"
    },
    {
      "name": "instructorName",
      "filter": "(indexof(instructor/familyName, '${value}') ge 0 or indexof(instructor/givenName, '${value}') ge 0)",
      "type": "text"
    },
    {
      "name": "thesisType",
      "filter": "(type/id eq '${value && value.id}')",
      "type": "text"
    },
    {
      "name": "subject",
      "filter": "(subject eq '${value}')",
      "type": "text"
    }
  ]
}
