{
  "title": "Internships.All",
  "model": "Internships",
  "searchExpression": "indexof(student/person/familyName, '${text}') ge 0 or indexof(student/studentIdentifier, '${text}') ge 0 or indexof(student/person/givenName, '${text}') ge 0 or indexof(name, '${text}') ge 0",
  "selectable": true,
  "multipleSelect": true,
  "columns": [
    {
      "name": "id",
      "virtual": true,
      "property": "id",
      "formatter": "ButtonFormatter",
      "className": "text-center",
      "title": "Internships.Id",
      "formatOptions": {
        "buttonContent": "<i class=\"fas fa-search text-indigo\"></i>",
        "buttonClass": "btn btn-default",
        "commands": [
          "/internships",
          "${id}",
          "preview",
          "general"
        ]
      }
    },
    {
      "name": "id",
      "formatter": "ButtonFormatter",
      "className": "text-center",
      "title": "&nbsp;",
      "formatOptions": {
        "buttonContent": "<i class=\"fas fa-edit text-indigo\"></i>",
        "buttonClass": "btn btn-default",
        "commands": [
          {
            "outlets": {
              "modal": [
                "${id}",
                "edit"
              ]
            }
          }
        ]
      }
    },
    {
      "name": "student",
      "hidden": "true"
    },
    {
      "name": "name",
      "title": "Internships.Subject"
    },
    {
      "name": "student/studentIdentifier",
      "property": "studentIdentifier",
      "title": "Students.studentIdentifier",
      "formatter": "TemplateFormatter",
      "formatString": "${studentIdentifier ? studentIdentifier : '-'}"
    },
    {
      "name": "student/person/givenName",
      "property": "givenName",
      "hidden": true
    },
    {
      "name": "student/person/familyName",
      "property": "familyName",
      "title": "Internships.StudentFullName",
      "formatter": "TemplateFormatter",
      "formatString": "${studentIdentifier ? familyName + ' ' +givenName : '-'}"
    },
    {
      "name": "student/studentStatus/alternateName",
      "property": "studentStatusAlternateName",
      "title": "Internships.StudentStatus",
      "formatter": "TranslationFormatter",
      "formatString": "StudentStatuses.${value}"
    },
    {
      "name": "internshipYear/alternateName",
      "property": "yearAlternateName",
      "title": "Internships.YearAlternateName"
    },
    {
      "name": "internshipPeriod/alternateName",
      "property": "internshipPeriodAlternateName",
      "title": "Internships.InternshipPeriodAlternateName",
      "formatter": "TranslationFormatter",
      "formatString": "Periods.${value}"
    },
    {
      "name": "startDate",
      "property": "startDate",
      "title": "Internships.StartDate",
      "formatter": "DateTimeFormatter",
      "formatString": "shortDate"
    },
    {
      "name": "dateCompleted",
      "property": "dateCompleted",
      "title": "Internships.DateCompleted",
      "formatter": "DateTimeFormatter",
      "formatString": "shortDate"
    },
    {
      "name": "status/alternateName",
      "property": "statusAlternateName",
      "title": "Internships.Status",
      "formatter": "TranslationFormatter",
      "formatString": "InternshipStatus.${value ? value : 'null'}"
    },
    {
      "name": "department/abbreviation",
      "property": "departmentAbbreviation",
      "title": "Internships.Department",
      "hidden": true
    },
    {
      "name": "company/name",
      "property": "companyName",
      "title": "Internships.Company"
    },
    {
      "name": "dateModified",
      "property": "dateModified",
      "title": "Internships.DateModified",
      "formatter": "DateTimeFormatter",
      "formatString": "short"
    }
  ],
  "defaults": {
    "filter": "(department eq ${currentDepartment})",
    "orderBy": "dateModified desc"
  },
  "criteria": [
    {
      "name": "subjectName",
      "title": "Internships.Subject",
      "filter": "(indexof(name, '${value}') ge 0)",
      "type": "text"
    },
    {
      "name": "studentName",
      "title": "Internships.Status",
      "filter": "( indexof(student/person/familyName, '${value}') ge 0 or indexof(student/person/givenName, '${value}') ge 0 )",
      "type": "text"
    },
    {
      "name": "internshipStatus",
      "title": "Internships.Status",
      "filter": "(status/alternateName eq '${value}')",
      "type": "text"
    },
    {
      "name": "academicYear",
      "title": "Internships.AcademicYear",
      "filter": "(internshipYear/id eq '${value}')",
      "type": "text"
    },
    {
      "name": "academicPeriod",
      "title": "Internships.AcademicPeriod",
      "filter": "(internshipPeriod/alternateName eq '${value}')",
      "type": "text"
    },
    {
      "name": "startedAfter",
      "title": "Internships.StartedAfter",
      "filter": "(startDate ge '${new Date(value).toISOString()}')",
      "type": "text"
    },
    {
      "name": "startedBefore",
      "title": "Internships.StartedBefore",
      "filter": "(startDate le '${new Date(value).toISOString()}')",
      "type": "text"
    },
    {
      "name": "studentStatus",
      "filter": "(student/studentStatus eq ${value})",
      "type": "hidden"
    }
  ],
  "searches": [
    {
      "name": "Active internships",
      "filter": {
        "internshipStatus": "active"
      }
    },
    {
      "name": "Completed by active students",
      "filter": {
        "studentStatus": 1,
        "internshipStatus": "completed"
      }
    },
    {
      "name": "In progress by active students",
      "filter": {
        "studentStatus": 1,
        "internshipStatus": "active"
      }
    }
  ],
  "paths": [
    {
      "name": "Internships.All",
      "alternateName": "list/index",
      "show": true
    },
    {
      "name": "InternshipStatus.active",
      "alternateName": "list/active",
      "show": true
    },
    {
      "name": "InternshipStatus.completed",
      "alternateName": "list/completed"
    },
    {
      "name": "InternshipStatus.available",
      "alternateName": "list/available",
      "show": true
    }
  ]
}
