{
  "model": "StudyProgramSpecialties",
  "components": [
    {
      "legend": "Study Program Specialty",
      "key": "fieldSet",
      "type": "fieldset",
      "input": false,
      "label": "Study Program Specialty",
      "components": [
        {
          "label": "HTML",
          "tag": "h5",
          "className": "font-weight-normal",
          "content": "{{form.subtitle}}",
          "refreshOnChange": false,
          "tableView": false,
          "key": "subtitle",
          "type": "htmlelement",
          "input": false
        },
        {
          "columns": [
            {
              "components": [
                {
                  "label": "Name",
                  "labelPosition": "top",
                  "widget": {
                    "type": "input"
                  },
                  "validate": {
                    "required": true,
                    "maxLength": 150
                  },
                  "key": "name",
                  "type": "textfield",
                  "input": true,
                  "disabled": false
                }
              ],
              "width": 12
            },
            {
              "components": [
                {
                  "label": "Abbreviation",
                  "labelPosition": "top",
                  "widget": {
                    "type": "input"
                  },
                  "validate": {
                    "required": true,
                    "maxLength": 20
                  },
                  "key": "abbreviation",
                  "type": "textfield",
                  "input": true
                }
              ],
              "width": 12
            }
          ],
          "customClass": "text-dark",
          "hideLabel": true,
          "type": "columns",
          "input": false
        }
      ]
    },
    {
      "type": "button",
      "label": "Submit",
      "key": "submit",
      "disableOnInvalid": true,
      "input": true
    }
  ]
}
