[
  {
    "entitySet": "Students",
    "title": "Spotlight.Students",
    "options": {
      "$top": 5,
      "$orderby": "inscriptionYear desc,inscriptionPeriod desc",
      "$filter": "indexof(studentIdentifier, '${text}') ge 0 or indexof(person/familyName, '${text}') ge 0 or indexof(person/givenName, '${text}') ge 0 or indexof(studentStatus/name, '${text}') ge 0 or indexof(uniqueIdentifier, '${text}') ge 0",
      "$select": "id,studentIdentifier,person/familyName as familyName,person/givenName as givenName,department/id as departmentId,department/name as departmentName"
    },
    "label": "[${studentIdentifier}] ${familyName} ${givenName} (${department})",
    "link": "/students/${id}/dashboard/overview"
  },
  {
    "entitySet": "Instructors",
    "title": "Spotlight.Instructors",
    "options": {
      "$top": 5,
      "$orderby": "dateModified desc",
      "$filter": "indexof(category, '${text}') ge 0 or indexof(familyName, '${text}') ge 0 or indexof(givenName, '${text}') ge 0 or indexof(email, '${text}') ge 0 or indexof(instructorCode, '${text}') ge 0",
      "$select": "id,familyName,givenName,department/id as departmentId,department/name as departmentName,category,email,instructorCode"
    },
    "label": "${familyName} ${givenName} (${department}) [${category}]",
    "link": "/instructors/${id}/dashboard/overview"
  }
]