{
    "model": "CourseAreas",
    "columns": [
        {
            "name": "name",
            "title": "Settings.Attributes.name",
            "hidden": false
        },
        {
            "name": "abbreviation",
            "title": "Settings.Attributes.abbreviation",
            "hidden": false
        },
        {
            "name": "id",
            "formatter": "ButtonFormatter",
            "formatString":"(modal:edit)",
            "className": "text-center",
            "formatOptions": {
                "buttonContent": "<i class=\"far fa-edit text-indigo\"></i>",
                "buttonClass": "btn btn-default"
            }
        }
    ]
}