{
    "model": "GradeScales",
    "title": "GradeScales",
    "searchExpression":"indexof(name, '${text}') ge 0",
    "columns": [
      {
        "name": "name",
        "title": "Settings.Attributes.name"
      },
      {
        "name": "scaleType",
        "title": "Settings.Attributes.scaleType"
      },
      {
        "name": "scaleBase",
        "title": "Settings.Attributes.scaleBase"
      },
      {
        "name": "id",
        "formatter": "ButtonFormatter",
        "formatString":"(modal:edit)",
        "className": "text-center",
        "formatOptions": {
          "buttonContent": "<i class=\"far fa-edit text-indigo\"></i>",
          "buttonClass": "btn btn-default"
        }
      }
    ],
    "defaults": {
      "orderBy": "name desc"
    }
  }

