{
    "settings": {
        "i18n": {
            "el": {
                "Courses to be registered": "Να δηλωθούν μαθήματα",
                "Only obligatory": "Υποχρεωτικά εξαμήνου φοιτητών",
                "Not passed of specific type": "Οφειλόμενα συγκεκριμένου τύπου",
                "Not passed and obligatory": "Οφειλόμενα υποχρεωτικά",
                "Specific courses": "Τρέχουσας ακαδημαϊκής περιόδου",
                "Not passed course type": "Τύπος οφειλόμενων μαθημάτων",
                "Select courses": "Επιλογή μαθημάτων",
                "Specify the type of the not passed courses": "Επιλέξτε τον τύπο των οφειλόμενων μαθημάτων.",
                "Select one or more of the courses that are offered in the current academic period": "Επιλέξτε ένα ή περισσότερα μαθήματα που προσφέρονται στην τρέχουσα ακαδ. περίοδο.",
                "All the courses of the student's semester with an obligatory course type will be registered": "Πρόκειται να δηλωθούν όλα τα μαθήματα του τυπικού εξαμήνου των φοιτητών, των οποίων ο τύπος δηλώνει ότι είναι υποχρεωτικά.",
                "All the courses up to the student's semester, and of the specified course type, that are not passed will be registered": "Πρόκειται να δηλωθούν όλα τα οφειλόμενα μαθήματα του συγκεκριμένου τύπου που έχουν δηλωθεί στο παρελθόν.",
                "All the selected courses will be registered": "Πρόκειται να δηλωθούν όλα τα επιλεγμένα μαθήματα.",
                "All the not passed and obligatory courses of previous semesters will be registered": "Πρόκειται να δηλωθούν όλα τα οφειλόμενα μαθήματα προηγούμενων εξαμήνων, των οποίων ο τύπος δηλώνει ότι είναι υποχρεωτικά.",
                "PeriodDescription": "ΠΡΟΣΟΧΗ: Οι δηλώσεις θα δημιουργηθούν για την ακαδημαϊκή περίοδο",
                "WarningMessage": "Βεβαιωθείτε ότι έχετε επιλέξει τους σωστούς φοιτητές και έχετε ορίσει τα σωστά κριτήρια. Η ενέργεια δεν μπορεί να αναιρεθεί."
            },
            "en": {
                "PeriodDescription": "WARNING: The registrations will be created for the academic period",
                "WarningMessage": "Be sure that the selected students and the defined criteria are correct. The action cannot be undone."
            }
        }
    },
    "components": [
        {
            "type": "fieldset",
            "components": [
                {
                    "columns": [
                        {
                            "components": [
                              {
                                "customConditional": "show = data && data.activeDepartment && data.activeDepartment.currentYear && data.activeDepartment.currentPeriod",
                                "content": "<div class=\"alert alert-warning\" role=\"alert\">{{instance.t('PeriodDescription')}} {{data.activeDepartment.currentYear.alternateName}} {{instance.t(data.activeDepartment.currentPeriod.alternateName)}}. {{instance.t('WarningMessage')}}</div>",
                                "type": "htmlelement"
                              }
                            ],
                            "width": 12,
                            "offset": 0,
                            "push": 0,
                            "pull": 0
                        },
                        {
                            "components": [
                                {
                                    "label": "Courses to be registered",
                                    "labelPosition": "top",
                                    "widget": "choicesjs",
                                    "searchEnabled": false,
                                    "data": {
                                        "values": [
                                            {
                                                "label": "Only obligatory",
                                                "value": "onlyObligatory"
                                            },
                                            {
                                                "label": "Not passed and obligatory",
                                                "value": "notPassedObligatory"
                                            },
                                            {
                                                "label": "Not passed of specific type",
                                                "value": "notPassed"
                                            },
                                            {
                                                "label": "Specific courses",
                                                "value": "specificSelection"
                                            }
                                        ]
                                    },
                                    "key": "autoRegisterClassActionType",
                                    "type": "select",
                                    "dataType": "string",
                                    "input": true,
                                    "validate": {
                                        "required": true
                                    }
                                }
                            ],
                            "width": 8
                        },
                        {
                            "components": [
                                {
                                    "label": "Not passed course type",
                                    "labelPosition": "top",
                                    "widget": "choicesjs",
                                    "dataSrc": "url",
                                    "data": {
                                        "url": "CourseTypes?$top=-1&$select=id, name",
                                        "headers": []
                                    },
                                    "template": "{{ item.name }}",
                                    "selectValues": "value",
                                    "key": "obligatoryCourseType",
                                    "valueProperty": "id",
                                    "type": "select",
                                    "input": true,
                                    "validate": {
                                        "required": true
                                    },
                                    "lazyLoad": true,
                                    "customConditional": "show = data && data.autoRegisterClassActionType === 'notPassed'",
                                    "description": "Specify the type of the not passed courses"
                                }
                            ],
                            "width": 8
                        },
                        {
                            "components": [
                                {
                                    "label": "Select courses",
                                    "labelPosition": "top",
                                    "widget": "choicesjs",
                                    "dataSrc": "url",
                                    "data": {
                                        "url": "CourseClasses?$filter=status/alternateName ne 'closed' and department eq '{{data.activeDepartment.id}}' and year eq {{data.activeDepartment.currentYear.id}} and period eq {{data.activeDepartment.currentPeriod.id}}&$select=id, course/displayCode as displayCode, title&$top=-1",
                                        "headers": []
                                    },
                                    "template": "[{{item.displayCode}}] - {{item.title}}",
                                    "selectValues": "value",
                                    "key": "courseClasses",
                                    "valueProperty": "id",
                                    "type": "select",
                                    "input": true,
                                    "validate": {
                                        "required": true
                                    },
                                    "multiple": true,
                                    "lazyLoad": true,
                                    "dataType": "string",
                                    "customConditional": "show = data && !!data.activeDepartment && data.autoRegisterClassActionType === 'specificSelection'",
                                    "description": "Select one or more of the courses that are offered in the current academic period"
                                }
                            ],
                            "width": 12
                        },
                        {
                            "components": [
                              {
                                "customConditional": "show = data && data.autoRegisterClassActionType === 'onlyObligatory'",
                                "content": "All the courses of the student's semester with an obligatory course type will be registered",
                                "customClass": "text-secondary font-md",
                                "type": "htmlelement"
                              }
                            ],
                            "width": 8,
                            "offset": 0,
                            "push": 0,
                            "pull": 0,
                            "size": "md"
                        },
                        {
                            "components": [
                              {
                                "customConditional": "show = data && data.autoRegisterClassActionType === 'notPassed'",
                                "content": "All the courses up to the student's semester, and of the specified course type, that are not passed will be registered",
                                "customClass": "text-secondary font-md",
                                "type": "htmlelement"
                              }
                            ],
                            "width": 8,
                            "offset": 0,
                            "push": 0,
                            "pull": 0,
                            "size": "md"
                        },
                        {
                            "components": [
                              {
                                "customConditional": "show = data && data.autoRegisterClassActionType === 'specificSelection'",
                                "content": "All the selected courses will be registered",
                                "customClass": "text-secondary font-md",
                                "type": "htmlelement"
                              }
                            ],
                            "width": 8,
                            "offset": 0,
                            "push": 0,
                            "pull": 0,
                            "size": "md"
                        },
                        {
                            "components": [
                              {
                                "customConditional": "show = data && data.autoRegisterClassActionType === 'notPassedObligatory'",
                                "content": "All the not passed and obligatory courses of previous semesters will be registered",
                                "customClass": "text-secondary font-md",
                                "type": "htmlelement"
                              }
                            ],
                            "width": 8,
                            "offset": 0,
                            "push": 0,
                            "pull": 0,
                            "size": "md"
                        }
                    ],
                    "customClass": "formio-component-select-wrap text-dark",
                    "hideLabel": true,
                    "type": "columns",
                    "input": false
                }
            ]
        }
    ],
    "width": 3
}
