{
    "components": [
      {
        "label": "Columns",
        "columns": [
          {
            "components": [
              {
                "label": "Settings.Attributes.specialization",
                "spellcheck": true,
                "tableView": true,
                "validate": {
                  "unique": false,
                  "multiple": false
                },
                "key": "name",
                "type": "textfield",
                "input": true,
                "hideOnChildrenHidden": false
              }
            ],
            "width": 6,
            "offset": 0,
            "push": 0,
            "pull": 0
          },
          {
            "components": [
              {
                "label": "Has degree template",
                "widget": "choicesjs",
                "data": {
                  "values": [
                    {
                      "label": "No",
                      "value": "0"
                    },
                    {
                      "label": "Yes",
                      "value": "1"
                    }
                  ]
                },
                "selectThreshold": 0.3,
                "validate": {
                  "unique": false,
                  "multiple": false
                },
                "key": "hasDegreeTemplate",
                "valueProperty": "value",
                "selectValues": "value",
                "type": "select",
                "input": true,
                "searchEnabled": false,
                "hideOnChildrenHidden": false,
                "disableLimit": false,
                "lazyLoad": false
              },
              {
                "label": "Settings.Attributes.studyProgram",
                "widget": "choicesjs",
                "dataSrc": "url",
                "defaultValue": "",
                "labelPosition": "top",
                "data": {
                  "values": [],
                  "url": "/StudyPrograms?$top=-1&$skip=0&$orderby=name&$select=id,name&$filter=department eq '{{form.department}}'",
                  "headers": []
                },
                "validate": {
                  "required": false
                },
                "valueProperty": "id",
                "lazyLoad": false,
                "dataType": "string",
                "template": "{{ item.name }}",
                "selectThreshold": 0.3,
                "key": "studyProgram",
                "type": "select",
                "selectValues": "value",
                "input": true,
                "hidden": false,
                "customConditional": "form.department != null"
              },
              {
                "label": "Department",
                "widget": "choicesjs",
                "dataSrc": "url",
                "defaultValue": "",
                "labelPosition": "top",
                "data": {
                  "values": [],
                  "url": "/LocalDepartments?$top=-1&$skip=0&$orderby=name&&$filter=alternativeCode ne null&$select=id,name,alternativeCode",
                  "headers": []
                },
                "validate": {
                  "required": false
                },
                "valueProperty": "id",
                "lazyLoad": false,
                "dataType": "string",
                "template": "{{ item.name }}",
                "selectThreshold": 0.3,
                "key": "departmentID",
                "type": "select",
                "selectValues": "value",
                "input": true,
                "hidden": true
              }
            ],
            "width": 6
          }
        ],
        "tableView": false,
        "key": "columns1",
        "type": "columns",
        "input": false,
        "path": "columns1"
      }
    ]
  }
  