{
  "model": "StudentCourseClasses",
  "title": "Courses",
  "searchExpression": "(indexof(courseClass/title, '${text}') ge 0 or indexof(course/displayCode, '${text}') ge 0)",
  "columns": [
    {
      "name": "course/displayCode",
      "property": "displayCode",
      "title": "Courses.DisplayCode"
    },
    {
      "name": "courseClass/title",
      "property": "courseName",
      "title": "Courses.TitleSingular"
    },
    {
      "name": "registration/registrationYear/name",
      "property": "registrationYear",
      "title": "Labels.AcademicYear"
    },
    {
      "name": "registration/registrationPeriod/alternateName",
      "property": "registrationPeriod",
      "title": "Labels.PeriodLabel",
      "formatter": "TranslationFormatter",
      "formatString": "Periods.${value}"
    },
    {
      "name": "semester/alternateName",
      "property": "semester",
      "title": "Students.semester"
    },
    {
      "name": "coefficient",
      "property": "coefficient",
      "title": "Courses.Coefficient"
    },
    {
      "name": "courseType/name",
      "property": "courseTypeName",
      "title": "Courses.CourseType.Label"
    },
    {
      "name": "sectionName",
      "property": "sectionName",
      "title": "SectionSingular"
    },
    {
      "name": "units",
      "property": "units",
      "title": "Courses.units"
    },
    {
      "name": "ects",
      "property": "ects",
      "title": "Courses.ects"
    },
    {
      "name": "registrationType",
      "property": "registrationType",
      "title": "RegistrationType",
      "formatter": "TranslationFormatter",
      "formatString": "${value === 1 ? 'Yes' : 'No'}"
    },
    {
      "name": "autoRegistered/alternateName",
      "property": "autoRegistered",
      "title": "AutoRegistered",
      "formatter": "TranslationFormatter",
      "formatString": "AutoRegisterStatusTypes.${value}"
    },
    {
      "name": "absences",
      "property": "absences",
      "title": "Absences"
    },
    {
      "name": "status/name",
      "property": "status",
      "title": "Registrations.ClassStatus"
    },
    {
      "name": "isPassed",
      "property": "isPassed",
      "hidden": true
    },
    {
      "name": "formattedGrade",
      "property": "formattedGrade",
      "title": "Students.Grade",
      "formatter": "NgClassFormatter",
      "formatOptions": {
        "ngClass": {
          "text-success": "${isPassed}===1  && ${formattedGrade != null}",
          "text-danger": "${isPassed}===0 && ${formattedGrade != null}"
        }
      }
    }
  ],
  "criteria": [
    {
      "name": "courseTitle",
      "filter": "(indexof(courseClass/title, '${value}') ge 0)",
      "type": "text"
    },
    {
      "name": "displayCode",
      "filter": "(indexof(course/displayCode, '${value}') ge 0)",
      "type": "text"
    },
    {
      "name": "registrationYear",
      "filter": "(registration/registrationYear/id eq '${value}')",
      "type": "text"
    },
    {
      "name": "registrationPeriod",
      "filter": "(registration/registrationPeriod/id eq '${value}')",
      "type": "text"
    },
    {
      "name": "courseType",
      "filter": "(courseType/id eq '${value}')",
      "type": "text"
    },
    {
      "name": "registrationType",
      "filter": "(registrationType eq '${value}')",
      "type": "text"
    },
    {
      "name": "semester",
      "filter": "(semester/id eq '${value}')",
      "type": "text"
    },
    {
      "name": "isPassed",
      "filter": "(isPassed eq ${value})",
      "type": "text"
    }
  ]
}
