{
    "components": [
      {
        "label": "Columns",
        "columns": [
          {
            "components": [
              {
                "label": "Students.studentIdentifier",
                "spellcheck": true,
                "tableView": true,
                "validate": {
                  "unique": false,
                  "multiple": false
                },
                "key": "studentIdentifier",
                "type": "textfield",
                "input": true,
                "hideOnChildrenHidden": false
              }
            ],
            "width": 3,
            "offset": 0,
            "push": 0,
            "pull": 0
          },
          {
            "components": [
              {
                "label": "Students.fullName",
                "spellcheck": true,
                "tableView": true,
                "validate": {
                  "unique": false,
                  "multiple": false
                },
                "key": "studentName",
                "type": "textfield",
                "input": true,
                "hideOnChildrenHidden": false
              }
            ],
            "width": 5,
            "offset": 0,
            "push": 0,
            "pull": 0
          },
          {
            "components": [
              {
                "label": "Students.UserName",
                "spellcheck": true,
                "tableView": true,
                "validate": {
                  "unique": false,
                  "multiple": false
                },
                "key": "username",
                "type": "textfield",
                "input": true,
                "hideOnChildrenHidden": false
              }
            ],
            "width": 4,
            "offset": 0,
            "push": 0,
            "pull": 0
          },
          {
            "components": [
              {
                "label": "Students.studyProgram",
                "labelPosition": "top",
                "widget": "choicesjs",
                "key": "studyProgram",
                "dataSrc": "url",
                "data": {
                  "url": "StudyPrograms?$top=-1&$skip=0&$filter=department eq '{{form.department}}'",
                  "headers": []
                },
                "template": "{{ item.name }}",
                "selectValues": "value",
                "valueProperty": "id",
                "type": "select",
                "input": true,
                "disabled": false,
                "lazyLoad": false,
                "searchEnabled": true
              }
            ],
            "width": 4,
            "offset": 0,
            "push": 0,
            "pull": 0
          },
          {
            "components": [
              {
                "label": "Students.Specialty",
                "labelPosition": "top",
                "widget": "choicesjs",
                "dataSrc": "url",
                "data": {
                  "url": "/StudyProgramSpecialties?$select=id,name&$filter=studyProgram eq {{data.studyProgram || 0}}",
                  "headers": []
                },
                "dataType": "object",
                "idPath": "id",
                "redrawOn": "studyProgram",
                "lazyLoad": true,
                "clearOnRefresh": true,
                "template": "<span class='d-block pr-5 text-truncate'>{{ item.name }}</span>",
                "selectThreshold": 0.3,
                "key": "studyProgramSpecialty",
                "type": "select",
                "selectValues": "value",
                "input": true
  
              }
            ],
            "width": 4
          },
          {
            "components": [
              {
                "label": "Students.InscriptionMode",
                "widget": "choicesjs",
                "dataSrc": "url",
                "data": {
                  "url": "InscriptionModes?$top=-1&$orderby=id desc",
                  "headers": []
                },
                "selectThreshold": 0.3,
                "validate": {
                  "unique": false,
                  "multiple": false
                },
                "template": "{{ item.name }}",
                "key": "inscriptionMode",
                "valueProperty": "id",
                "selectValues": "value",
                "type": "select",
                "input": true,
                "hideOnChildrenHidden": false,
                "disableLimit": false,
                "lazyLoad": false
              }
            ],
            "width": 5,
            "offset": 0,
            "push": 0,
            "pull": 0
          },
          {
            "components": [
              {
                "label": "Students.inscriptionYear",
                "widget": "choicesjs",
                "dataSrc": "url",
                "data": {
                  "url": "AcademicYears?$orderby=id desc",
                  "headers": []
                },
                "selectThreshold": 0.3,
                "validate": {
                  "unique": false,
                  "multiple": false
                },
                "template": "{{ item.name }}",
                "key": "inscriptionYear",
                "valueProperty": "id",
                "selectValues": "value",
                "type": "select",
                "input": true,
                "hideOnChildrenHidden": false,
                "disableLimit": false,
                "lazyLoad": false
              }
            ],
            "width": 3,
            "offset": 0,
            "push": 0,
            "pull": 0
          },
          {
            "components": [
              {
                "label": "Students.inscriptionPeriod",
                "widget": "choicesjs",
                "dataSrc": "url",
                "data": {
                  "url": "AcademicPeriods?$orderby=id",
                  "headers": []
                },
                "selectThreshold": 0.3,
                "validate": {
                },
                "template": "{{ item.name }}",
                "key": "inscriptionPeriod",
                "valueProperty": "id",
                "selectValues": "value",
                "type": "select",
                "input": true,
                "hideOnChildrenHidden": false,
                "disableLimit": false,
                "lazyLoad": false,
                "searchEnabled": false
              }
            ],
            "width": 4,
            "offset": 0,
            "push": 0,
            "pull": 0
          },
          {
            "components": [
              {
                "label": "Students.Semester",
                "widget": {
                  "type": "input"
                },
                "validate": {
                  "pattern": "^\\d+$",
                  "customMessage": "Semester must be an integer and less than 100",
                  "maxLength": "2"
                },
                "key": "semester",
                "type": "textfield",
                "input": true,
                "hideOnChildrenHidden": false
              }
            ],
            "width": 4,
            "offset": 0,
            "push": 0,
            "pull": 0
          }
        ],
        "tableView": false,
        "key": "columns1",
        "type": "columns",
        "input": false,
        "path": "columns1"
      }
    ]
  }
  