{
  "title": "StudentAdditionalInfo",
  "model": "StudentInformations",
  "searchExpression": "indexof(student/studentIdentifier, '${text}') ge 0 or indexof(student/person/familyName, '${text}') ge 0 or indexof(student/person/givenName, '${text}') ge 0 or indexof(infoType/name, '${text}') ge 0 or indexof(student/studentStatus/name, '${text}') ge 0",
  "selectable": false,
  "columns": [
    {
      "name":"id",
      "hidden": "true"
    },
    {
      "name": "student/id",
      "property": "studentId",
      "formatter": "ButtonFormatter",
      "formatString": "#/student-additional-info/list/(modal:${id}/edit)",
      "className": "text-center",
      "formatOptions": {
        "buttonContent": "<i class=\"far fa-edit text-indigo\"></i>",
        "buttonClass": "btn btn-default"
      }
    },
    {
      "name": "id",
      "virtual": true,
      "formatter": "ButtonFormatter",
      "formatString": "#/students/${studentId}/dashboard/informations",
      "className": "text-center",
      "formatOptions": {
        "buttonContent": "<i class=\"far fa-eye text-indigo\"></i>",
        "buttonClass": "btn btn-default"
      }
    },
    {
      "name": "student/studentIdentifier",
      "property": "studentIdentifier",
      "title": "Students.StudentIdentifier.long"
    },
    {
      "name":"student/person/familyName",
      "property": "familyName",
      "title":"Students.fullName",
      "formatter": "TemplateFormatter",
      "formatString": "${familyName} ${givenName}"
    },
    {
      "name":"student/person/givenName",
      "property": "givenName",
      "title":"Students.GivenName",
      "hidden": true
    },
    {
      "name": "description",
      "property": "description",
      "title": "Description"
    },
    {
      "name": "infoType/name",
      "property": "type",
      "title": "Students.InfoType"
    },
    {
      "name": "infoDate",
      "property": "infoDate",
      "title": "Students.Date",
      "formatter": "DateTimeFormatter",
      "formatString": "shortDate"
    },
    {
      "name": "published",
      "property": "published",
      "title": "Published",
      "formatters": [
        {
          "formatter": "TrueFalseFormatter"
        },
        {
          "formatter": "NgClassFormatter",
          "formatOptions": {
            "ngClass": {
              "text-success": "${published}",
              "text-danger": "${!published}"
            }
          }
        }
      ]
    },
    {
      "name": "status",
      "property": "status",
      "title": "Status",
      "formatter": "TranslationFormatter",
      "formatString": "${value === 1 ? 'status.InProgress' : 'status.Completed'}"
    },
    {
      "name":"student/studentStatus/alternateName",
      "property": "studentStatus",
      "title":"StudentStatus",
      "formatter": "TranslationFormatter",
      "formatString": "StudentStatuses.${value}"
    }
  ],
  "defaults":{
    "orderBy": "infoDate desc"
  },
  "criteria": [
    {
      "name": "studentIdentifier",
      "filter": "(student/studentIdentifier eq '${value}')",
      "type": "text"
    },
    {
      "name": "studentName",
      "filter": "(indexof(student/person/familyName, '${value}') ge 0 or indexof(student/person/givenName, '${value}') ge 0)",
      "type": "text"
    },
    {
      "name": "infoType",
      "filter": "(infoType/id eq '${value}')",
      "type": "text"
    },
    {
      "name": "published",
      "filter": "(published eq '${value}')",
      "type": "text"
    },
    {
      "name": "setAfter",
      "filter": "(infoDate ge '${new Date(value).toISOString()}')",
      "type": "text"
    },
    {
      "name": "setBefore",
      "filter": "(infoDate le '${new Date(value).toISOString()}')",
      "type": "text"
    },
    {
      "name": "status",
      "filter": "(status eq '${value}')",
      "type": "text"
    },
    {
      "name": "studentStatus",
      "filter": "(student/studentStatus/alternateName eq '${value}')",
      "type": "text"
    }
  ]
}
