{
  "model": "CourseExams",
  "components": [
    {
      "type": "fieldset",
      "legend": "Course Details",
      "components": [
        {
          "customClass": "text-dark",
          "hideLabel": true,
          "type": "columns",
          "input": false,
          "columns": [
            {
              "components": [
                {
                  "label": "Course ID",
                  "labelPosition": "top",
                  "disabled": true,
                  "validate": {
                    "required": false
                  },
                  "key": "course.displayCode",
                  "type": "textfield",
                  "input": true,
                  "widget": "choicesjs",
                  "lazyload": true
                }
              ],
              "width": 3
            },
            {
              "components": [
                {
                  "label": "Course Name",
                  "labelPosition": "top",
                  "disabled": true,
                  "validate": {
                    "required": false
                  },
                  "key": "course.name",
                  "type": "textfield",
                  "input": true,
                  "widget": "choicesjs",
                  "lazyload": true
                }
              ],
              "width": 9
            }
          ]
        }
      ]
    },
    {
      "type": "fieldset",
      "legend": "Exam details",
      "components": [
        {
          "customClass": "text-dark",
          "hideLabel": true,
          "type": "columns",
          "input": false,
          "columns": [
            {
              "components": [
                {
                  "label": "Status",
                  "labelPosition": "top",
                  "key": "status",
                  "type": "select",
                  "input": true,
                  "dataSrc": "url",
                  "data": {
                      "url": "CourseExamStatuses",
                      "headers": []
                  },
                  "template": "<span class='d-block pr-5 text-truncate'>{{ item.alternateName }}</span>",
                  "selectValues": "value",
                  "widget": "choicesjs",
                  "defaultValue": "1",
                  "lazyLoad": false,
                  "valueProperty": "id",
                  "searchEnabled": false,
                  "disabled": false,
                  "validate": {
                    "required": true
                  }
                }
              ],
              "width": 3
            },
            {
              "components": [
                {
                  "label": "Exam title",
                  "labelPosition": "top",
                  "disabled": false,
                  "validate": {
                    "required": true
                  },
                  "key": "name",
                  "type": "textfield",
                  "lazyLoad": false,
                  "input": true,
                  "calculateValue": "value = data.course.name",
                  "allowCalculateOverride": true
                }
              ],
              "width": 9
            }
          ]
        },
        {
          "customClass": "text-dark",
          "hideLabel": true,
          "type": "columns",
          "input": false,
          "columns": [
              {
                "components": [
                  {
                    "label": "Period",
                    "labelPosition": "top",
                    "widget": "choicesjs",
                    "dataSrc": "url",
                    "validate": {
                      "required": true
                    },
                    "data": {
                        "url": "ExamPeriods",
                        "headers": []
                    },
                    "template": "<span class='d-block pr-5 text-truncate'>{{ item.name }}</span>",
                    "selectValues": "value",
                    "valueProperty": "id",
                    "key": "examPeriod",
                    "type": "select",
                    "input": true,
                    "searchEnabled": false
                  }
                ],
                "width": 6
              },
              {
                "components": [
                  {
                    "label": "Academic Year",
                    "widget": "choicesjs",
                    "searchEnabled": false,
                    "searchFields": [
                        "value.id",
                        "value.alternateName"
                    ],
                    "dataSrc": "url",
                    "data": {
                        "url": "AcademicYears?$orderby=id desc",
                        "headers": []
                    },
                    "selectThreshold": 0.3,
                    "template": "<span class='d-block pr-5 text-truncate'>{{ item.alternateName }}</span>",
                    "key": "year.id",
                    "valueProperty": "id",
                    "selectValues": "value",
                    "type": "select",
                    "input": true,
                    "hideOnChildrenHidden": false,
                    "disableLimit": false,
                    "lazyLoad": false,
                    "validate": {
                      "required": true
                    }
                  }
                ],
                "width": 6
              },
              {
              "components": [
                  {
                    "label": "Notes",
                    "labelPosition": "top",
                    "widget": {
                        "type": "input"
                    },
                    "validate": {
                        "required": false
                    },
                    "key": "notes",
                    "type": "textarea",
                    "input": true
                  }
              ],
              "width": 12,
              "offset": 0,
              "push": 0,
              "pull": 0
            }
          ]
        }
      ]
    },
    {
      "type": "button",
      "label": "Submit",
      "key": "submit",
      "disableOnInvalid": true,
      "input": true
    }
  ]
}
