{
  "title": "Requests",
  "model": "DocumentConfigurations",
  "columns": [
    {
      "name":"id",
      "property": "id",
      "formatter": "ActionLinkFormatter",
      "actions": [
      {
         "title": "Requests.Edit.Label",
         "href": "#/requests/documents/${id}/edit"
      }
        ]
    },
    {
      "name":"name",
      "property": "name"
    },
    {
      "name":"inLanguage",
      "property": "inLanguage",
      "title":"Requests.InLanguage",
      "formatter": "LanguageFormatter"
    },
    {
      "name":"dateCreated",
      "property": "dateCreated",
      "title":"Requests.CreationDate",
      "formatter": "DateTimeFormatter",
      "formatString": "medium"
    },
    {
      "name":"dateModified",
      "property": "dateModified",
      "title":"Requests.Preview.DateModified",
      "formatter": "DateTimeFormatter",
      "formatString": "medium"
    }
  ]
}
