{
  "model": "Students",
  "settings": {
    "i18n": {
      "el": {
        "Add link to student with department snapshot history": "Σύνδεση φοιτητών με ιστορικό αλλαγών τμήματος",
        "Select department snapshot changes to relate it with students": "Επιλέξτε το ιστορικό αλλαγών που θα συνδεθεί με τους επιλεγμένους φοιτητές"
      }
    }
  },
  "components": [
    {
      "type": "fieldset",
      "key": "fieldSet",
      "input": false,
      "components": [
        {
          "columns": [
            {
              "components": [
                {
                  "label": "Add link to student with department snapshot history",
                  "labelPosition": "top",
                  "widget": "choicesjs",
                  "dataSrc": "url",
                  "customConditional": "show = !!(data.department);",
                  "data": {
                    "url": "/DepartmentSnapshots?$select=id,description&$filter=department eq {{data.department}}",
                    "headers": []
                  },
                  "validate": {
                    "required": true
                  },
                  "valueProperty": "id",
                  "lazyLoad": false,
                  "dataType": "string",
                  "template": "<span class='d-block pr-5 text-truncate'>{{ item.description }}</span>",
                  "selectThreshold": 0.3,
                  "key": "departmentSnapshot",
                  "type": "select",
                  "selectValues": "value",
                  "input": true,
                  "description": "Select department snapshot changes to relate it with students"
                }
              ],
              "width": 8
            }
          ],
          "customClass": "text-dark",
          "hideLabel": true,
          "type": "columns",
          "input": false
        }
      ]
    }
  ]
}
