{
  "settings": {
    "i18n": {
    }
  },
  "components": [
    {
      "label": "HTML",
      "content": "<h5>{{instance.t('MeanGradeRuleTitle')}}</h5><p class=\"text-secondary\">{{instance.t('MeanGradeRuleDescription')}}</p>",
      "refreshOnChange": false,
      "key": "html",
      "type": "htmlelement",
      "input": false,
      "tableView": false,
      "customConditional": "show = (data.$state != 4)"
    },
    {
      "label": "refersTo",
      "hidden": true,
      "disabled": true,
      "tableView": true,
      "defaultValue": "YearMeanGrade",
      "clearOnHide": false,
      "key": "refersTo",
      "type": "textfield",
      "input": true
    },
    {
      "type": "fieldset",
      "components": [
        {
          "columns": [
            {
              "components": [
                {
                  "label": "Grade years",
                  "labelPosition": "top",
                  "key": "examYears",
                  "type": "select",
                  "searchEnabled": true,
                  "dataSrc": "url",
                  "data": {
                    "url": "AcademicYears?$top={{limit}}&$skip={{skip}}&$orderby=id desc",
                    "headers": []
                  },
                  "multiple": true,
                  "limit": 20,
                  "template": "{{ item.alternateName }}",
                  "input": true,
                  "lazyLoad": true,
                  "selectValues": "value",
                  "widget": "choicesjs",
                  "validate": {
                    "required": true
                  }
                }
              ],
              "width": 6,
              "offset": 0,
              "push": 0,
              "pull": 0,
              "size": "md"
            },

            {
              "components": [
                {
                  "widget": "choicesjs",
                  "label": "Course semesters",
                  "tableView": true,
                  "multiple": true,
                  "dataSrc": "url",
                  "data": {
                    "url": "Semesters/All?$orderby=id",
                    "headers": []
                  },
                  "selectValues": "value",
                  "template": "<span class='text-truncate'>{{ item.name }}</span>",
                  "key": "semesters",
                  "type": "select",
                  "input": true,
                  "lazyLoad": false
                }
              ],
              "width": 6,
              "offset": 0,
              "push": 0,
              "pull": 0,
              "size": "md"
            },
            {
              "components": [
                {
                  "label": "Grade",
                  "description": "SetMeanGradeValue",
                  "tableView": true,
                  "validate": {
                    "required": true,
                    "min": 0,
                    "max": 1
                  },
                  "key": "grade",
                  "type": "number",
                  "input": true,
                  "hideOnChildrenHidden": false
                }
              ],
              "size": "md",
              "width": 6,
              "offset": 0,
              "push": 0,
              "pull": 0
            },
            {
              "label": "TotalCourses",
              "components": [
                {
                  "label": "TotalCoursesHelp",
                  "customClass": "border-0",
                  "reorder": false,
                  "addAnotherPosition": "bottom",
                  "defaultOpen": false,
                  "layoutFixed": false,
                  "enableRowGroups": false,
                  "initEmpty": true,
                  "tableView": false,
                  "addAnother": "AddItem",
                  "key": "totalCourses",
                  "type": "datagrid",
                  "input": true,
                  "components": [
                    {
                      "label": "CourseType",
                      "labelPosition": "top",
                      "dataSrc": "url",
                      "data": {
                        "url": "CourseTypes/All?$top=-1&$select=id,name&$orderby=id asc",
                        "headers": []
                      },
                      "searchFields": [
                        "id",
                        "name"
                      ],
                      "template": "<span class='d-block pr-5 text-truncate'>{{ item.name }}</span>",
                      "selectValues": "value",
                      "key": "courseType",
                      "type": "select",
                      "lazyLoad": false,
                      "input": true,
                      "validate": {
                        "required": true
                      }
                    },
                    {
                      "label": "Courses",
                      "tableView": true,
                      "key": "courses",
                      "type": "number",
                      "input": true,
                      "hideOnChildrenHidden": false
                    }
                  ]
                }
              ],
              "size": "md",
              "width": 12,
              "offset": 0,
              "push": 0,
              "pull": 0
            }
          ],
          "customClass": "text-dark",
          "hideLabel": true,
          "type": "columns",
          "input": false
        }
      ]
    },
    {
      "legend": "Other conditions",
      "type": "fieldset",
      "components": [
        {
          "columns": [
            {
              "components": [
                {
                  "label": "Options",
                  "dataSrc": "url",
                  "data": {
                    "url": "/RuleMeanGradeTypes",
                    "headers": []
                  },
                  "template": "<span>{{item.name}} ({{item.description}})</span>",
                  "selectValues": "value",
                  "refreshOnChange": false,
                  "tableView": false,
                  "key": "ruleCheckType",
                  "type": "select",
                  "multiple": true,
                  "input": true
                }
              ],
              "width": 12,
              "offset": 0,
              "push": 0,
              "pull": 0,
              "size": "md"
            },
            {
              "components": [
                {
                  "label": "ExcludeCourses",
                  "dataSrc": "url",
                  "customConditional": "show = !!(data.target && data.target.department);",
                  "data": {
                    "values": [],
                    "url": "/Courses?$top=-1&$skip=0&$select=id,name,displayCode&$filter=department eq {{data.target.department}}",
                    "headers": []
                  },
                  "template": "<span>[{{item.displayCode}}] - {{ item.name }}</span>",
                  "selectValues": "value",
                  "refreshOnChange": false,
                  "tableView": false,
                  "key": "excludeCourses",
                  "type": "select",
                  "multiple": true,
                  "input": true
                }
              ],
              "width": 6,
              "offset": 0,
              "push": 0,
              "pull": 0,
              "size": "md"
            },
            {
              "components": [
                {
                  "label": "ExcludeCourseTypes",
                  "dataSrc": "url",
                  "data": {
                    "values": [],
                    "url": "/CourseTypes?$top=-1",
                    "headers": []
                  },
                  "template": "<span class='text-truncate'>{{ item.name }}</span>",
                  "selectValues": "value",
                  "refreshOnChange": false,
                  "tableView": false,
                  "key": "excludeCourseTypes",
                  "type": "select",
                  "multiple": true,
                  "input": true
                }
              ],
              "width": 6,
              "offset": 0,
              "push": 0,
              "pull": 0,
              "size": "md"
            },
            {
              "components": [
                {
                  "label": "Course areas",
                  "dataSrc": "url",
                  "customConditional": "show = !!(data.target && data.target.department);",
                  "data": {
                    "values": [],
                    "url": "/CourseAreas?$top=-1&$skip=0&$select=id,name&$filter=department eq {{data.target.department}}",
                    "headers": []
                  },
                  "template": "<span class='text-truncate'>{{ item.name }}</span>",
                  "selectValues": "value",
                  "refreshOnChange": false,
                  "tableView": false,
                  "key": "courseAreas",
                  "type": "select",
                  "multiple": true,
                  "input": true
                }
              ],
              "width": 4,
              "offset": 0,
              "push": 0,
              "pull": 0,
              "size": "md"
            },
            {
              "components": [
                {
                  "label": "Course sectors",
                  "dataSrc": "url",
                  "customConditional": "show = !!(data.target && data.target.department);",
                  "data": {
                    "values": [],
                    "url": "/CourseSectors?$top=-1&$skip=0&$select=id,name&$filter=department eq {{data.target.department}}",
                    "headers": []
                  },
                  "template": "<span class='text-truncate'>{{ item.name }}</span>",
                  "selectValues": "value",
                  "refreshOnChange": false,
                  "tableView": false,
                  "key": "courseSectors",
                  "type": "select",
                  "multiple": true,
                  "input": true
                }
              ],
              "width": 4,
              "offset": 0,
              "push": 0,
              "pull": 0,
              "size": "md"
            },
            {
              "components": [
                {
                  "label": "Course categories",
                  "dataSrc": "url",
                  "data": {
                    "values": [],
                    "url": "/CourseCategories?$top=-1&$skip=0&$select=id,name",
                    "headers": []
                  },
                  "template": "<span class='text-truncate'>{{ item.name }}</span>",
                  "selectValues": "value",
                  "refreshOnChange": false,
                  "tableView": false,
                  "key": "courseCategories",
                  "type": "select",
                  "multiple": true,
                  "input": true
                }
              ],
              "width": 4,
              "offset": 0,
              "push": 0,
              "pull": 0,
              "size": "md"
            },
            {
              "label": "TotalCoursesPerType",
              "components": [
                {
                  "label": "TotalCoursesPerTypeHelp",
                  "customClass": "border-0",
                  "reorder": false,
                  "addAnotherPosition": "bottom",
                  "defaultOpen": false,
                  "layoutFixed": false,
                  "enableRowGroups": false,
                  "initEmpty": true,
                  "tableView": false,
                  "addAnother": "AddItem",
                  "key": "totalCoursesPerType",
                  "type": "datagrid",
                  "input": true,
                  "components": [
                    {
                      "label": "CourseType",
                      "labelPosition": "top",
                      "dataSrc": "url",
                      "data": {
                        "url": "CourseTypes/All?$top=-1&$select=id,name&$orderby=id asc",
                        "headers": []
                      },
                      "searchFields": [
                        "id",
                        "name"
                      ],
                      "template": "<span class='d-block pr-5 text-truncate'>{{ item.name }}</span>",
                      "selectValues": "value",
                      "key": "courseType",
                      "type": "select",
                      "lazyLoad": false,
                      "input": true,
                      "validate": {
                        "required": true
                      }
                    },
                    {
                      "label": "Courses",
                      "tableView": true,
                      "key": "courses",
                      "type": "number",
                      "input": true,
                      "hideOnChildrenHidden": false
                    }
                  ]
                }
              ],
              "size": "md",
              "width": 12,
              "offset": 0,
              "push": 0,
              "pull": 0
            }
          ],
          "customClass": "text-dark",
          "hideLabel": true,
          "type": "columns",
          "input": false
        }
      ]
    },
    {
      "type": "button",
      "action": "event",
      "label": "RemoveRule",
      "event": "remove",
      "key": "remove",
      "theme": "danger",
      "disableOnInvalid": false,
      "input": true,
      "tableView": false
    }
  ]
}
