{
    "model": "GraduationEvents",
    "settings": {
      "i18n": {
        "el": {
          "Change graduation event status": "Αλλαγή κατάστασης ορκωμοσίας",
          "Graduation": "Ορκωμοσία",
          "Set the graduation's status": "Ορίστε την κατάσταση της ορκωμοσίας"
        }
      }
    },
    "components": [
      {
        "type": "fieldset",
        "legend": "Change graduation event status",
        "components": [
          {
            "customClass": "text-dark",
            "hideLabel": true,
            "type": "columns",
            "input": true,
            "columns": [
              {
                "components": [
                  {
                    "label": "Graduation",
                    "labelPosition": "top",
                    "widget": {
                      "type": "input"
                    },
                    "validate": {
                      "required": false
                    },
                    "calculateValue": "value = data.name + \" - \" + data.graduationYear.alternateName + \" - \" + data.graduationPeriod.name",
                    "type": "textfield",
                    "input": true,
                    "disabled": true
                  }
                ],
                "width": 6
              },
              {
                "components": [
                  {
                    "label": "Status",
                    "labelPosition": "top",
                    "widget": "choicesjs",
                    "dataSrc": "url",
                    "data": {
                      "url": "EventStatusTypes/?$top=-1&$select=id,name",
                      "headers": []
                    },
                    "searchFields": ["id", "name"],
                    "selectThreshold": 0.3,
                    "template": "<span class='d-block pr-5 text-truncate'>{{ item.name }}</span>",
                    "selectValues": "value",
                    "key": "eventStatus",
                    "dataType": "object",
                    "idPath": "id",
                    "type": "select",
                    "lazyLoad": false,
                    "input": true,
                    "validate": {
                      "required": true
                    },
                    "description": "Set the graduation's status"
                  }
                ],
                "width": 6
              }
            ]
          }
        ]
      },
      {
        "type": "button",
        "label": "Submit",
        "key": "submit",
        "disableOnInvalid": true,
        "input": true
      }
    ]
  }
  