{
  "title": "Students",
  "model": "Students",
  "searchExpression":"indexof(studentIdentifier, '${text}') ge 0 or indexof(person/familyName, '${text}') ge 0 or indexof(person/givenName, '${text}') ge 0 or indexof(studyProgram/name, '${text}') ge 0 or indexof(studentStatus/name, '${text}') ge 0)",
  "columns": [
    {
      "name":"studyProgram",
      "property": "studyProgramId",
      "hidden": true
    },
    {
      "name":"id",
      "property": "id",
      "formatter": "ActionLinkFormatter",
      "actions" : [
        {
          "title": "Students.Preview",
          "href": "#/students/${id}/dashboard/overview"
        },
        {
          "title": "Students.PreviewStudyProgram",
          "href": "#/study-programs/${studyProgramId}/preview/general"
        }
      ]
    },
    {
      "name":"studentIdentifier",
      "property": "studentIdentifier",
      "title":"Students.studentIdentifier"
    },
    {
      "name":"person/familyName",
      "property": "familyName",
      "title":"Students.fullName",
      "formatter": "TemplateFormatter",
      "formatString": "${familyName} ${givenName}"
    },
    {
      "name":"person/givenName",
      "property": "givenName",
      "title":"Students.GivenName",
      "hidden": true
    },
    {
      "name":"department/name",
      "property": "departmentName",
      "title":"Students.Department"
    },
    {
      "name":"studyProgram/abbreviation",
      "property": "studyProgram",
      "title":"Students.studyProgram"
    },
    {
      "name":"semester",
      "property": "semester",
      "title":"Students.semester"
    },
    {
      "name":"inscriptionYear/alternateName",
      "property": "inscriptionYear",
      "title":"Students.inscriptionYear"
    },
    {
      "name":"inscriptionPeriod/alternateName",
      "property": "inscriptionPeriod",
      "title":"Students.inscriptionPeriod",
      "formatter": "TranslationFormatter",
      "formatString": "Periods.${value}"
    },
    {
      "name":"studentStatus/alternateName",
      "property": "studentStatus",
      "title":"Students.Status",
      "formatter": "TranslationFormatter",
      "formatString": "StudentStatuses.${value}"
    }
  ],
  "defaults":{
    "filter": "(department eq ${currentDepartment})"
  },
  "criteria": [
    {
      "name": "studentIdentifier",
      "filter": "(studentIdentifier eq '${value}')",
      "type": "text"
    },
    {
      "name": "studentName",
      "filter": "(indexof(person/givenName, '${value}') ge 0 or indexof(person/familyName, '${value}') ge 0)",
      "type": "text"
    },
    {
      "name": "studyProgram",
      "filter": "(indexof(studyProgram/abbreviation, '${value}') ge 0)",
      "type": "text"
    },
    {
      "name": "department",
      "filter": "(indexof(department/name, '${value}') ge 0)",
      "type": "text"
    },
    {
      "name": "inscriptionPeriod",
      "filter": "(inscriptionPeriod/alternateName eq '${value}')",
      "type": "text"
    },
    {
      "name": "inscriptionYear",
      "filter": "(inscriptionYear/alternateName eq '${value}')",
      "type": "text"
    }
  ]
}
