{
  "model": "StudentGradeRemarkActions",
  "title": "New grade remark request on behalf of student",
  "settings": {
    "i18n": {
      "el": {
        "New grade remark request on behalf of student": "Νέα αίτηση αναβαθμολόγησης εκ μέρους του φοιτητή",
        "Grade remark": "Νέα αίτηση αναβαθμολόγησης",
        "Select the course for this request. All courses are available for remarking.": "Επιλέξτε το μάθημα που θέλετε να αιτηθείτε αναβαθμολόγηση. Όλα τα μαθήματα είναι διαθέσιμα προς αναβαθμολόγηση.",
        "Additional notes regarding the request": "Ορίστε κάποια επιπλέον σημείωση εάν χρειάζεται η αίτηση",
        "Select course": "Επιλέξτε μάθημα",
        "Remark decision": "Αριθμός απόφασης",
        "Comments": "Σχόλια"
      }
    }
  },
  "components": [
    {
      "key": "fieldset",
      "type": "fieldset",
      "input": false,
      "components": [
        {
          "columns": [
            {
              "components": [
                {
                  "label": "Student Number",
                  "key": "student.studentIdentifier",
                  "labelPosition": "top",
                  "type": "number",
                  "disabled": true,
                  "input": true,
                  "validate": {
                    "required": false
                  }
                }
              ],
              "width": 4,
              "offset": 0,
              "push": 0,
              "pull": 0
            },
            {
              "components": [
                {
                  "label": "Given Name",
                  "key": "student.person.givenName",
                  "labelPosition": "top",
                  "dataSrc": "url",
                  "widget": {
                    "type": "input"
                  },
                  "validate": {
                    "required": false
                  },
                  "type": "textfield",
                  "disabled": true,
                  "input": true
                }
              ],
              "width": 4,
              "offset": 0,
              "push": 0,
              "pull": 0
            },
            {
              "components": [
                {
                  "label": "Family Name",
                  "labelPosition": "top",
                  "widget": "choicesjs",
                  "dataSrc": "url",
                  "selectValues": "value",
                  "disabled": true,
                  "key": "student.person.familyName",
                  "type": "textfield",
                  "input": true,
                  "validate": {
                    "required": false
                  }
                }
              ],
              "width": 4,
              "offset": 0,
              "push": 0,
              "pull": 0
            },
            {
              "components": [
                {
                  "label": "Select course",
                  "widget": "choicesjs",
                  "dataSrc": "url",
                  "data": {
                    "url": "/Students/{{ data.student.id }}/grades?$filter=status/alternateName eq 'normal' and remark/id eq null&$top=-1&$expand=courseExam($expand=course)&$orderby=courseExam/name",
                    "headers": []
                  },
                  "selectThreshold": 0.3,
                  "validate": {
                    "required": true
                  },
                  "template": "{{ item.courseExam.course.displayCode}} - {{item.courseExam.description}} ({{item.formattedGrade}})",
                  "key": "courseExam",
                  "valueProperty": "courseExam",
                  "selectValues": "value",
                  "type": "select",
                  "input": true,
                  "hideOnChildrenHidden": false,
                  "disableLimit": false,
                  "lazyLoad": false,
                  "description": "Select the course for this request. All courses are available for remarking."
                }
              ],
              "width": 12,
              "offset": 0,
              "push": 0,
              "pull": 0
            },
            {
              "components": [
                {
                  "label": "Remark decision",
                  "labelPosition": "top",
                  "widget": {
                    "type": "input"
                  },
                  "validate": {
                    "required": false
                  },
                  "key": "remarkDecision",
                  "type": "textfield",
                  "input": true
                }
              ],
              "width": 6
            },
            {
              "components": [
                {
                  "label": "Comments",
                  "widget": "choicesjs",
                  "selectThreshold": 0.3,
                  "validate": {
                    "unique": false,
                    "multiple": false
                  },
                  "key": "comments",
                  "type": "textarea",
                  "input": true,
                  "hideOnChildrenHidden": false,
                  "disableLimit": false,
                  "description": "Additional notes regarding the request"
                }
              ],
              "width": 12,
              "offset": 0,
              "push": 0,
              "pull": 0
            },
            {
              "components": [
                {
                  "label": "Status",
                  "widget": "choicesjs",
                  "dataSrc": "json",
                  "data": {
                    "json": [
                      {
                        "alternateName": "CompletedActionStatus"
                      }
                    ]
                  },
                  "template": "{{ item.alternateName }}",
                  "key": "actionStatus",
                  "dataType": "object",
                  "idPath": "id",
                  "selectValues": "value",
                  "type": "select",
                  "input": true,
                  "hideOnChildrenHidden": false,
                  "calculateValue": "value = component.data.json[0];",
                  "clearOnHide": false,
                  "hidden": true
                }
              ],
              "width": 4,
              "offset": 0,
              "push": 0,
              "pull": 0
            }
          ],
          "customClass": "text-dark",
          "type": "columns",
          "input": false
        }
      ]
    },
    {
      "type": "button",
      "label": "Submit",
      "key": "submit",
      "disableOnInvalid": true,
      "input": true
    }
  ]
}
