{
  "title": "ProgramCourses",
  "model": "ProgramCourses",
  "searchExpression": "(indexof(course/name, '${text}') ge 0 or indexof(course/displayCode, '${text}') ge 0 or indexof(course/department/abbreviation, '${text}') ge 0 or indexof(course/department/name, '${text}') ge 0 or indexof(semester/name, '${text}') ge 0 or indexof(course/name, '${text}') ge 0 or indexof(course/displayCode, '${text}') ge 0 or indexof(course/department/abbreviation, '${text}') ge 0 or indexof(course/department/name, '${text}') ge 0 or indexof(studyProgramSpecialty/abbreviation, '${text}') ge 0 or indexof(studyProgramSpecialty/name, '${text}') ge 0 or indexof(courseType/abbreviation, '${text}') ge 0 or indexof(courseType/name, '${text}') ge 0)",
  "columns": [
    {
      "name": "id",
      "property": "programCourseID",
      "hidden": true
    },
    {
      "name": "course/id",
      "property": "courseID",
      "hidden": true
    },
    {
      "name": "course",
      "property": "course",
      "hidden": true
    },
    {
      "name": "course/id",
      "property": "id",
      "virtual": true,
      "formatter": "ActionLinkFormatter",
      "actions": [
        {
          "title": "StudentCourses.Preview",
          "href": "#/courses/${id}/"
        },
        {
          "title": "StudentCourses.Edit",
          "href": "#/courses/${id}/edit"
        }
      ]
    },
    {
      "name": "course/displayCode",
      "property": "displayCode",
      "title": "StudentCourses.DisplayCode"
    },
    {
      "name": "course/name",
      "property": "name",
      "title": "StudentCourses.name"
    },
    {
      "name": "course/department/abbreviation",
      "property": "departmentName",
      "title": "StudentCourses.Department"
    },
    {
      "name": "semester/id",
      "property": "semester",
      "title": "StudentCourses.semester"
    },
    {
      "name": "studyProgramSpecialty/abbreviation",
      "property": "specialty",
      "title": "StudentCourses.specialty"
    },
    {
      "name": "courseType/abbreviation",
      "property": "courseType",
      "title": "StudentCourses.courseType"
    }
  ],
  "defaults": {
    "filter": "program eq ${program} and course/courseStructureType ne 8  and programGroup eq ${programGroup}"
  },
  "criteria": [
    {
      "name": "course/name",
      "filter": "(indexof(course/name, '${value}') ge 0)",
      "type": "text"
    },
    {
      "name": "course/department",
      "filter": "(course/department eq '${value}')",
      "type": "text"
    },
    {
      "name": "course/displayCode",
      "filter": "(indexof(course/displayCode, '${value}') ge 0)",
      "type": "text"
    },
    {
      "name": "semester/id",
      "filter": "(semester/id eq '${value}')",
      "type": "text"
    },
    {
      "name": "semester/name",
      "filter": "(indexof(semester/name, '${value}') ge 0)",
      "type": "text"
    },
    {
      "name": "studyProgramSpecialty/abbreviation",
      "filter": "(indexof(studyProgramSpecialty/abbreviation, '${value}') ge 0)",
      "type": "text"
    },
    {
      "name": "studyProgramSpecialty/name",
      "filter": "(indexof(studyProgramSpecialty/name, '${value}') ge 0)",
      "type": "text"
    },
    {
      "name": "courseType/abbreviation",
      "filter": "(indexof(courseType/abbreviation, '${value}') ge 0)",
      "type": "text"
    },
    {
      "name": "courseType/name",
      "filter": "(indexof(courseType/name, '${value}') ge 0)",
      "type": "text"
    }
  ],
  "paths": [
  ]
}
